{
    "key": "group_5d0afbc605d96",
    "title": "Page Options",
    "fields": [
        {
            "key": "field_5d0afbc61ac9e",
            "label": "Enable Parallax",
            "name": "parallax_enabled",
            "type": "true_false",
            "instructions": "Show parallax background image on this page.",
            "required": 0,
            "conditional_logic": 0,
            "wrapper": {
                "width": "",
                "class": "",
                "id": ""
            },
            "message": "",
            "default_value": 1,
            "ui": 1,
            "ui_on_text": "",
            "ui_off_text": ""
        }
    ],
    "location": [
        [
            {
                "param": "post_type",
                "operator": "==",
                "value": "page"
            }
        ]
    ],
    "menu_order": 0,
    "position": "side",
    "style": "default",
    "label_placement": "top",
    "instruction_placement": "label",
    "hide_on_screen": "",
    "active": 1,
    "description": "",
    "modified": 1561000965
}